…
Converting to a data frame:


```julia
julia> df = DataFrame(table)
699×10 DataFrame
 Row │ Clump_Thickness  Cell_Size_Uniformity  Cell_Shape_Uniformity  Marginal_ ⋯
     │ Float64          Float64               Float64                Float64   ⋯
─────┼──────────────────────────────────────────────────────────────────────────
   1 │             5.0                   1.0                    1.0            ⋯
   2 │             5.0                   4.0                    4.0
   3 │             3.0                   1.0                    1.0
   4 │             6.0                   8.0                    8.0
   5 │             4.0                   1.0                    1.0            ⋯
   6 │             8.0                  10.0                   10.0
   7 │             1.0                   1.0                    1.0
   8 │             2.0                   1.0                    2.0
  ⋮  │        ⋮                  ⋮                      ⋮                    ⋮ ⋱
 693 │             3.0                   1.0                    1.0            ⋯
 694 │             3.0                   1.0                    1.0
 695 │             3.0                   1.0                    1.0
 696 │             2.0                   1.0                    1.0
 697 │             5.0                  10.0                   10.0            ⋯
 698 │             4.0                   8.0                    6.0
 699 │             4.0                   8.0                    8.0
                                                  7 columns and 684 rows omitted
```
…
